file,lon,lat,capture_time,Exif.Image.Software,Exif.Image.Artist,Xmp.xmp.Rating
e1.jpg,3.265,50.5151,2018-01-22T02:52:09+03:00,MS Paint,A 2 years old,1
e3.jpg,3.265277778,50.513433333,2018-01-22T02:54:09+03:00,,,
